{
	"info": {
		"_postman_id": "9ec8b2ae-a3fa-42f4-81b8-cb002e8d13dc",
		"name": "deliciaschef",
		"schema": "https://schema.getpostman.com/json/collection/v2.1.0/collection.json"
	},
	"item": [
		{
			"name": "POST",
			"item": [
				{
					"name": "com todos atributos preenchidos - sem itens",
					"request": {
						"auth": {
							"type": "basic",
							"basic": [
								{
									"key": "password",
									"value": "R07NfMKH",
									"type": "string"
								},
								{
									"key": "username",
									"value": "poupatempo.rgdigital",
									"type": "string"
								}
							]
						},
						"method": "POST",
						"header": [
							{
								"key": "Content-Type",
								"type": "text",
								"value": "application/json"
							},
							{
								"key": "Accept",
								"type": "text",
								"value": "application/json"
							},
							{
								"key": "Authorization",
								"type": "text",
								"value": "Basic YWRtaW46YWRtaW4=",
								"disabled": true
							}
						],
						"body": {
							"mode": "raw",
							"raw": "{\r\n\t\"frete\": 1000.00,\r\n\t\"nomeDestinatario\": \"João\",\r\n\t\"cliente\": {\"id\": 3 },\r\n\t\"funcionario\": {\"id\": 3 },\r\n\t\"endereco\": {\"id\": 16 }\r\n}"
						},
						"url": {
							"raw": "http://200.98.173.74:3024/pedidos/",
							"protocol": "http",
							"host": [
								"200",
								"98",
								"173",
								"74"
							],
							"port": "3024",
							"path": [
								"pedidos",
								""
							]
						}
					},
					"response": []
				},
				{
					"name": "com todos atributos preenchidos - com 3 itens",
					"request": {
						"auth": {
							"type": "basic",
							"basic": [
								{
									"key": "password",
									"value": "R07NfMKH",
									"type": "string"
								},
								{
									"key": "username",
									"value": "poupatempo.rgdigital",
									"type": "string"
								}
							]
						},
						"method": "POST",
						"header": [
							{
								"key": "Content-Type",
								"type": "text",
								"value": "application/json"
							},
							{
								"key": "Accept",
								"type": "text",
								"value": "application/json"
							},
							{
								"key": "Authorization",
								"type": "text",
								"value": "Basic YWRtaW46YWRtaW4=",
								"disabled": true
							}
						],
						"body": {
							"mode": "raw",
							"raw": "{\r\n\t\"frete\": 1000.00,\r\n\t\"nomeDestinatario\": \"João\",\r\n\t\"cliente\": {\"id\": 3 },\r\n\t\"funcionario\": {\"id\": 3 },\r\n\t\"endereco\": {\"id\": 16 },\r\n\t\"itens\": [ \r\n\t\t{\"produto\": {\"id\": 20}, \"precoUnitario\": 100, \"quantidade\": 12, \"desconto\": 5 },\r\n\t\t{\"produto\": {\"id\": 21}, \"precoUnitario\": 26.56, \"quantidade\": 6, \"desconto\": 5 },\r\n\t\t{\"produto\": {\"id\": 22}, \"precoUnitario\": 5.0, \"quantidade\": 3, \"desconto\": 5 }\r\n\t]\r\n}"
						},
						"url": {
							"raw": "http://200.98.173.74:3024/pedidos/",
							"protocol": "http",
							"host": [
								"200",
								"98",
								"173",
								"74"
							],
							"port": "3024",
							"path": [
								"pedidos",
								""
							]
						}
					},
					"response": []
				}
			],
			"protocolProfileBehavior": {}
		},
		{
			"name": "GET",
			"item": [
				{
					"name": "por logradouro",
					"protocolProfileBehavior": {
						"disableBodyPruning": true
					},
					"request": {
						"auth": {
							"type": "basic",
							"basic": [
								{
									"key": "password",
									"value": "R07NfMKH",
									"type": "string"
								},
								{
									"key": "username",
									"value": "poupatempo.rgdigital",
									"type": "string"
								}
							]
						},
						"method": "GET",
						"header": [
							{
								"key": "Content-Type",
								"type": "text",
								"value": "application/json"
							},
							{
								"key": "Accept",
								"type": "text",
								"value": "application/json"
							},
							{
								"key": "Authorization",
								"type": "text",
								"value": "Basic YWRtaW46YWRtaW4=",
								"disabled": true
							}
						],
						"body": {
							"mode": "raw",
							"raw": ""
						},
						"url": {
							"raw": "http://200.98.173.74:3024/pedidos/?logradouro=paulista",
							"protocol": "http",
							"host": [
								"200",
								"98",
								"173",
								"74"
							],
							"port": "3024",
							"path": [
								"pedidos",
								""
							],
							"query": [
								{
									"key": "logradouro",
									"value": "paulista"
								}
							]
						}
					},
					"response": []
				},
				{
					"name": "por id pedido",
					"protocolProfileBehavior": {
						"disableBodyPruning": true
					},
					"request": {
						"auth": {
							"type": "basic",
							"basic": [
								{
									"key": "password",
									"value": "R07NfMKH",
									"type": "string"
								},
								{
									"key": "username",
									"value": "poupatempo.rgdigital",
									"type": "string"
								}
							]
						},
						"method": "GET",
						"header": [
							{
								"key": "Content-Type",
								"type": "text",
								"value": "application/json"
							},
							{
								"key": "Accept",
								"type": "text",
								"value": "application/json"
							},
							{
								"key": "Authorization",
								"type": "text",
								"value": "Basic YWRtaW46YWRtaW4=",
								"disabled": true
							}
						],
						"body": {
							"mode": "raw",
							"raw": ""
						},
						"url": {
							"raw": "http://200.98.173.74:3024/pedidos/?idPedido=27",
							"protocol": "http",
							"host": [
								"200",
								"98",
								"173",
								"74"
							],
							"port": "3024",
							"path": [
								"pedidos",
								""
							],
							"query": [
								{
									"key": "idPedido",
									"value": "27"
								}
							]
						}
					},
					"response": []
				},
				{
					"name": "por id cliente",
					"protocolProfileBehavior": {
						"disableBodyPruning": true
					},
					"request": {
						"auth": {
							"type": "basic",
							"basic": [
								{
									"key": "password",
									"value": "R07NfMKH",
									"type": "string"
								},
								{
									"key": "username",
									"value": "poupatempo.rgdigital",
									"type": "string"
								}
							]
						},
						"method": "GET",
						"header": [
							{
								"key": "Content-Type",
								"type": "text",
								"value": "application/json"
							},
							{
								"key": "Accept",
								"type": "text",
								"value": "application/json"
							},
							{
								"key": "Authorization",
								"type": "text",
								"value": "Basic YWRtaW46YWRtaW4=",
								"disabled": true
							}
						],
						"body": {
							"mode": "raw",
							"raw": ""
						},
						"url": {
							"raw": "http://200.98.173.74:3024/pedidos/?idCliente=3",
							"protocol": "http",
							"host": [
								"200",
								"98",
								"173",
								"74"
							],
							"port": "3024",
							"path": [
								"pedidos",
								""
							],
							"query": [
								{
									"key": "idCliente",
									"value": "3"
								}
							]
						}
					},
					"response": []
				},
				{
					"name": "por id funcionario",
					"protocolProfileBehavior": {
						"disableBodyPruning": true
					},
					"request": {
						"auth": {
							"type": "basic",
							"basic": [
								{
									"key": "password",
									"value": "R07NfMKH",
									"type": "string"
								},
								{
									"key": "username",
									"value": "poupatempo.rgdigital",
									"type": "string"
								}
							]
						},
						"method": "GET",
						"header": [
							{
								"key": "Content-Type",
								"type": "text",
								"value": "application/json"
							},
							{
								"key": "Accept",
								"type": "text",
								"value": "application/json"
							},
							{
								"key": "Authorization",
								"type": "text",
								"value": "Basic YWRtaW46YWRtaW4=",
								"disabled": true
							}
						],
						"body": {
							"mode": "raw",
							"raw": ""
						},
						"url": {
							"raw": "http://200.98.173.74:3024/pedidos/?idFuncionario=3",
							"protocol": "http",
							"host": [
								"200",
								"98",
								"173",
								"74"
							],
							"port": "3024",
							"path": [
								"pedidos",
								""
							],
							"query": [
								{
									"key": "idFuncionario",
									"value": "3"
								}
							]
						}
					},
					"response": []
				},
				{
					"name": "sem nenhum filtro",
					"protocolProfileBehavior": {
						"disableBodyPruning": true
					},
					"request": {
						"auth": {
							"type": "basic",
							"basic": [
								{
									"key": "password",
									"value": "R07NfMKH",
									"type": "string"
								},
								{
									"key": "username",
									"value": "poupatempo.rgdigital",
									"type": "string"
								}
							]
						},
						"method": "GET",
						"header": [
							{
								"key": "Content-Type",
								"type": "text",
								"value": "application/json"
							},
							{
								"key": "Accept",
								"type": "text",
								"value": "application/json"
							},
							{
								"key": "Authorization",
								"type": "text",
								"value": "Basic YWRtaW46YWRtaW4=",
								"disabled": true
							}
						],
						"body": {
							"mode": "raw",
							"raw": ""
						},
						"url": {
							"raw": "http://200.98.173.74:3024/pedidos/",
							"protocol": "http",
							"host": [
								"200",
								"98",
								"173",
								"74"
							],
							"port": "3024",
							"path": [
								"pedidos",
								""
							]
						}
					},
					"response": []
				},
				{
					"name": "todos os produtos",
					"protocolProfileBehavior": {
						"disableBodyPruning": true
					},
					"request": {
						"auth": {
							"type": "basic",
							"basic": [
								{
									"key": "password",
									"value": "R07NfMKH",
									"type": "string"
								},
								{
									"key": "username",
									"value": "poupatempo.rgdigital",
									"type": "string"
								}
							]
						},
						"method": "GET",
						"header": [
							{
								"key": "Content-Type",
								"type": "text",
								"value": "application/json"
							},
							{
								"key": "Accept",
								"type": "text",
								"value": "application/json"
							},
							{
								"key": "Authorization",
								"type": "text",
								"value": "Basic YWRtaW46YWRtaW4=",
								"disabled": true
							}
						],
						"body": {
							"mode": "raw",
							"raw": ""
						},
						"url": {
							"raw": "http://200.98.173.74:3024/pedidos/produtos/?nomeProduto=banana",
							"protocol": "http",
							"host": [
								"200",
								"98",
								"173",
								"74"
							],
							"port": "3024",
							"path": [
								"pedidos",
								"produtos",
								""
							],
							"query": [
								{
									"key": "nomeProduto",
									"value": "banana"
								}
							]
						}
					},
					"response": []
				}
			],
			"protocolProfileBehavior": {}
		},
		{
			"name": "PUT",
			"item": [
				{
					"name": "com todos atributos preenchidos - com 1 item alterado",
					"request": {
						"auth": {
							"type": "basic",
							"basic": [
								{
									"key": "password",
									"value": "R07NfMKH",
									"type": "string"
								},
								{
									"key": "username",
									"value": "poupatempo.rgdigital",
									"type": "string"
								}
							]
						},
						"method": "PUT",
						"header": [
							{
								"key": "Content-Type",
								"type": "text",
								"value": "application/json"
							},
							{
								"key": "Accept",
								"type": "text",
								"value": "application/json"
							},
							{
								"key": "Authorization",
								"type": "text",
								"value": "Basic YWRtaW46YWRtaW4=",
								"disabled": true
							}
						],
						"body": {
							"mode": "raw",
							"raw": "{\r\n\t\"frete\": 1000.00,\r\n\t\"nomeDestinatario\": \"João Silva\",\r\n\t\"cliente\": {\"id\": 3 },\r\n\t\"funcionario\": {\"id\": 3 },\r\n\t\"endereco\": {\"id\": 16 },\r\n\t\"itens\": [ \r\n\t\t{\"produto\": {\"id\": 20}, \"precoUnitario\": 100, \"quantidade\": 999, \"desconto\": 9, \"id\": 133 }\r\n\t]\r\n}"
						},
						"url": {
							"raw": "http://200.98.173.74:3024/pedidos/3",
							"protocol": "http",
							"host": [
								"200",
								"98",
								"173",
								"74"
							],
							"port": "3024",
							"path": [
								"pedidos",
								"3"
							]
						}
					},
					"response": []
				}
			],
			"protocolProfileBehavior": {}
		},
		{
			"name": "DELETE",
			"item": [],
			"protocolProfileBehavior": {}
		},
		{
			"name": "START",
			"item": [
				{
					"name": "load all data",
					"protocolProfileBehavior": {
						"disableBodyPruning": true
					},
					"request": {
						"auth": {
							"type": "basic",
							"basic": [
								{
									"key": "password",
									"value": "R07NfMKH",
									"type": "string"
								},
								{
									"key": "username",
									"value": "poupatempo.rgdigital",
									"type": "string"
								}
							]
						},
						"method": "GET",
						"header": [
							{
								"key": "Content-Type",
								"type": "text",
								"value": "application/json"
							},
							{
								"key": "Accept",
								"type": "text",
								"value": "application/json"
							},
							{
								"key": "Authorization",
								"type": "text",
								"value": "Basic YWRtaW46YWRtaW4=",
								"disabled": true
							}
						],
						"body": {
							"mode": "raw",
							"raw": ""
						},
						"url": {
							"raw": "http://200.98.173.74:3024/pedidos/start/loadAll",
							"protocol": "http",
							"host": [
								"200",
								"98",
								"173",
								"74"
							],
							"port": "3024",
							"path": [
								"pedidos",
								"start",
								"loadAll"
							]
						}
					},
					"response": []
				},
				{
					"name": "load all data - LOCA_MACHINE",
					"protocolProfileBehavior": {
						"disableBodyPruning": true
					},
					"request": {
						"auth": {
							"type": "basic",
							"basic": [
								{
									"key": "password",
									"value": "R07NfMKH",
									"type": "string"
								},
								{
									"key": "username",
									"value": "poupatempo.rgdigital",
									"type": "string"
								}
							]
						},
						"method": "GET",
						"header": [
							{
								"key": "Content-Type",
								"type": "text",
								"value": "application/json"
							},
							{
								"key": "Accept",
								"type": "text",
								"value": "application/json"
							},
							{
								"key": "Authorization",
								"type": "text",
								"value": "Basic YWRtaW46YWRtaW4=",
								"disabled": true
							}
						],
						"body": {
							"mode": "raw",
							"raw": ""
						},
						"url": {
							"raw": "http://localhost:3024/pedidos/start/loadAll",
							"protocol": "http",
							"host": [
								"localhost"
							],
							"port": "3024",
							"path": [
								"pedidos",
								"start",
								"loadAll"
							]
						}
					},
					"response": []
				}
			],
			"protocolProfileBehavior": {}
		}
	],
	"protocolProfileBehavior": {}
}